browser_name	browser_version	build_id	creation_time	error	job_time	num_failed	os_info	start_time	test_time	passed	id	new_combi
googlechrome	27.0	8367	1398388253	False	18	0	Windows 2012 R2	1398388253	3271.0	True	1	True
googlechrome	28.0	8367	1398388253	False	16	0	Linux	1398388254	3088.0	True	2	True
safari	7.0	8367	1398388253	False	22	0	Mac 10.9	1398388254	3188.0	True	3	True
firefox	28.0	8367	1398388253	False	22	0	Linux	1398388254	3622.0	True	4	True
iexplore	10.0	8367	1398388253	False	28	0	Windows 2012	1398388254	3521.0	True	5	True
firefox	28.0	8367	1398388253	False	28	0	Windows 2012 R2	1398388254	3666.0	True	6	True
iexplore	11.0	8367	1398388253	False	22	0	Windows 2012 R2	1398388269	3301.0	True	7	True
firefox	28.0	8367	1398388253	False	37	7	Mac 10.9	1398388254	3852.0	False	8	True
safari	7.0	9828	1408316012	False	16	0	Mac 10.9	1408316012	2010.0	True	9	False
firefox	30.0	9828	1408316012	False	18	0	Mac 10.9	1408316012	1646.0	True	10	True
firefox	31.0	9828	1408316013	False	21	0	Windows 2012 R2	1408316013	2196.0	True	11	True
iexplore	8.0	9828	1408316013	False	21	1	Windows 2008	1408316013	6012.0	False	12	True
iexplore	10.0	9828	1408316013	False	21	0	Windows 2012	1408316013	2761.0	True	13	False
googlechrome	35.0	9828	1408316014	False	14	0	Linux	1408316014	1843.0	True	14	True
googlechrome	35.0	9828	1408316014	False	14	0	Windows 2012 R2	1408316014	1861.0	True	15	True
googlechrome	35.0	9828	1408316014	False	20	0	Mac 10.9	1408316014	2203.0	True	16	True
iexplore	11.0	9828	1408316014	False	20	0	Windows 2012 R2	1408316014	2300.0	True	17	False
iexplore	9.0	9828	1408316014	False	17	0	Windows 2008	1408316033	3886.0	True	18	True
iphone	7.1	9828	1408316014	False	39	0	Mac 10.9	1408316088	3359.0	True	19	True
firefox	31.0	9828	1408316016	False	16	0	Linux	1408316033	1844.0	True	20	True
safari	7.0	9870	1409048219	False	17	0	Mac 10.9	1409048219	1764.0	True	21	False
iexplore	10.0	9870	1409048219	False	16	0	Windows 2012	1409048219	2302.0	True	22	False
googlechrome	35.0	9870	1409048219	False	22	0	Mac 10.9	1409048219	2553.0	True	23	False
iexplore	9.0	9870	1409048219	False	22	0	Windows 2008	1409048219	4064.0	True	24	False
googlechrome	35.0	9870	1409048220	False	14	0	Windows 2012 R2	1409048221	2120.0	True	25	False
firefox	30.0	9870	1409048220	False	20	0	Mac 10.9	1409048221	2133.0	True	26	False
firefox	31.0	9870	1409048220	False	19	0	Windows 2012 R2	1409048221	2222.0	True	27	False
iexplore	11.0	9870	1409048220	False	20	0	Windows 2012 R2	1409048221	2466.0	True	28	False
iexplore	8.0	9870	1409048220	False	19	2	Windows 2008	1409048221	4898.0	False	29	False
googlechrome	35.0	9870	1409048220	False	19	0	Linux	1409048221	1987.0	True	30	False
firefox	31.0	9870	1409048220	False	16	0	Linux	1409048235	1851.0	True	31	False
iphone	7.1	9870	1409048225	False	48	1	Mac 10.9	1409048235	4098.0	False	32	False
googlechrome	35.0	9877	1409050609	False	18	0	Mac 10.9	1409050610	1920.0	True	33	False
safari	7.0	9877	1409050609	False	19	0	Mac 10.9	1409050610	2071.0	True	34	False
iexplore	10.0	9877	1409050609	False	19	0	Windows 2012	1409050610	2834.0	True	35	False
iexplore	8.0	9877	1409050609	False	25	1	Windows 2008	1409050610	6315.0	False	36	False
googlechrome	35.0	9877	1409050610	False	11	0	Linux	1409050611	1840.0	True	37	False
firefox	30.0	9877	1409050610	False	18	0	Mac 10.9	1409050611	1838.0	True	38	False
iexplore	9.0	9877	1409050610	False	18	0	Windows 2008	1409050611	4148.0	True	39	False
googlechrome	35.0	9877	1409050610	False	17	0	Windows 2012 R2	1409050611	2287.0	True	40	False
firefox	31.0	9877	1409050610	False	23	0	Windows 2012 R2	1409050611	2436.0	True	41	False
iexplore	11.0	9877	1409050610	False	17	0	Windows 2012 R2	1409050622	2686.0	True	42	False
iphone	7.1	9877	1409050610	False	41	0	Mac 10.9	1409050611	3969.0	True	43	False
firefox	31.0	9877	1409050611	False	16	0	Linux	1409050628	2116.0	True	44	False
googlechrome	35.0	9900	1409205305	False	18	0	Mac 10.9	1409205306	1747.0	True	45	False
safari	7.0	9900	1409205305	False	18	0	Mac 10.9	1409205306	2155.0	True	46	False
firefox	31.0	9900	1409205305	False	19	0	Windows 2012 R2	1409205305	2424.0	True	47	False
iexplore	8.0	9900	1409205305	False	19	0	Windows 2008	1409205305	4887.0	True	48	False
iexplore	11.0	9900	1409205305	False	20	0	Windows 2012 R2	1409205305	2682.0	True	49	False
iexplore	10.0	9900	1409205305	False	24	0	Windows 2012	1409205306	2927.0	True	50	False
iexplore	9.0	9900	1409205305	False	25	0	Windows 2008	1409205305	5657.0	True	51	False
firefox	30.0	9900	1409205306	False	36	0	Mac 10.9	1409205306	2578.0	True	52	False
firefox	31.0	9900	1409205306	False	13	0	Linux	1409205331	1853.0	True	53	False
googlechrome	35.0	9900	1409205306	False	14	1	Linux	1409205331	1808.0	False	54	False
googlechrome	35.0	9900	1409205306	False	18	0	Windows 2012 R2	1409205331	1899.0	True	55	False
iphone	7.1	9900	1409205306	False	48	0	Mac 10.9	1409205331	3857.0	True	56	False
iexplore	8.0	9905	1409207912	False	22	1	Windows 2008	1409207958	4892.0	False	57	False
safari	7.0	9905	1409207912	False	13	0	Mac 10.9	1409207971	1616.0	True	58	False
firefox	31.0	9905	1409207912	False	19	0	Windows 2012 R2	1409207965	2458.0	True	59	False
googlechrome	35.0	9905	1409207912	False	22	0	Windows 2012 R2	1409207965	2267.0	True	60	False
iexplore	9.0	9905	1409207912	False	26	0	Windows 2008	1409207965	5700.0	True	61	False
iexplore	10.0	9905	1409207912	False	18	0	Windows 2012	1409207971	2266.0	True	62	False
firefox	30.0	9905	1409207912	False	17	0	Mac 10.9	1409207978	1700.0	True	63	False
iexplore	11.0	9905	1409207912	False	22	0	Windows 2012 R2	1409207978	2686.0	True	64	False
googlechrome	35.0	9905	1409207912	False	22	0	Mac 10.9	1409207983	2270.0	True	65	False
iphone	7.1	9905	1409207912	False	63	0	Mac 10.9	1409207978	6320.0	True	66	False
firefox	31.0	9905	1409207913	False	12	0	Linux	1409207983	1772.0	True	67	False
googlechrome	35.0	9905	1409207914	False	17	0	Linux	1409207983	1813.0	True	68	False
safari	7.0	9906	1409208118	False	18	0	Mac 10.9	1409208193	1886.0	True	69	False
iexplore	11.0	9906	1409208118	False	21	0	Windows 2012 R2	1409208190	2478.0	True	70	False
firefox	31.0	9906	1409208118	False	15	0	Windows 2012 R2	1409208201	1977.0	True	71	False
googlechrome	35.0	9906	1409208118	False	20	0	Mac 10.9	1409208213	2667.0	True	72	False
googlechrome	35.0	9906	1409208118	False	15	0	Linux	1409208217	2288.0	True	73	False
iexplore	8.0	9906	1409208118	False	20	0	Windows 2008	1409208213	4640.0	True	74	False
firefox	31.0	9906	1409208118	False	20	0	Linux	1409208213	2598.0	True	75	False
googlechrome	35.0	9906	1409208118	False	18	0	Windows 2012 R2	1409208230	1822.0	True	76	False
iexplore	10.0	9906	1409208118	False	18	0	Windows 2012	1409208231	2525.0	True	77	False
firefox	30.0	9906	1409208118	False	26	1	Mac 10.9	1409208230	2907.0	False	78	False
iphone	7.1	9906	1409208119	False	64	1	Mac 10.9	1409208231	5749.0	False	79	False
iexplore	9.0	9906	1409208120	False	25	0	Windows 2008	1409208235	4591.0	True	80	False
iexplore	10.0	9911	1409271171	False	22	0	Windows 2012	1409271172	2597.0	True	81	False
firefox	30.0	9911	1409271171	False	28	0	Mac 10.9	1409271173	2724.0	True	82	False
safari	7.0	9911	1409271172	False	15	0	Mac 10.9	1409271173	1927.0	True	83	False
iexplore	11.0	9911	1409271172	False	21	0	Windows 2012 R2	1409271173	2691.0	True	84	False
iexplore	9.0	9911	1409271173	False	21	0	Windows 2008	1409271174	4139.0	True	85	False
iexplore	8.0	9911	1409271173	False	21	1	Windows 2008	1409271174	5532.0	False	86	False
googlechrome	35.0	9911	1409271174	False	19	0	Windows 2012 R2	1409271175	2013.0	True	87	False
googlechrome	35.0	9911	1409271174	False	24	0	Mac 10.9	1409271187	3065.0	True	88	False
firefox	31.0	9911	1409271176	False	18	0	Linux	1409271176	3731.0	True	89	False
googlechrome	35.0	9911	1409271176	False	18	0	Linux	1409271187	1837.0	True	90	False
firefox	31.0	9911	1409271176	False	13	0	Windows 2012 R2	1409271201	1909.0	True	91	False
iphone	7.1	9911	1409271496	False	44	0	Mac 10.9	1409271597	3305.0	True	92	False
iexplore	11.0	9916	1409281180	False	14	0	Windows 2012 R2	1409281180	2032.0	True	93	False
safari	7.0	9916	1409281180	False	13	0	Mac 10.9	1409281181	1773.0	True	94	False
iexplore	10.0	9916	1409281180	False	13	0	Windows 2012	1409281181	2480.0	True	95	False
googlechrome	35.0	9916	1409281180	False	14	0	Windows 2012 R2	1409281181	1842.0	True	96	False
googlechrome	35.0	9916	1409281180	False	15	0	Mac 10.9	1409281181	1967.0	True	97	False
firefox	30.0	9916	1409281180	False	19	0	Mac 10.9	1409281181	1997.0	True	98	False
iphone	7.1	9916	1409281180	False	59	0	Mac 10.9	1409281181	5714.0	True	99	False
firefox	31.0	9916	1409281181	False	12	0	Linux	1409281182	1814.0	True	100	False
firefox	31.0	9916	1409281181	False	17	0	Windows 2012 R2	1409281182	1951.0	True	101	False
iexplore	9.0	9916	1409281181	False	24	0	Windows 2008	1409281182	4775.0	True	102	False
googlechrome	35.0	9916	1409281181	False	15	0	Linux	1409281195	2103.0	True	103	False
iexplore	8.0	9916	1409281182	False	21	1	Windows 2008	1409281195	4511.0	False	104	False
safari	7.0	9924	1409429540	False	12	0	Mac 10.9	1409429540	1784.0	True	105	False
firefox	31.0	9924	1409429540	False	17	0	Windows 2012 R2	1409429540	1855.0	True	106	False
iexplore	11.0	9924	1409429540	False	18	0	Windows 2012 R2	1409429540	2093.0	True	107	False
iexplore	9.0	9924	1409429540	False	18	0	Windows 2008	1409429540	3399.0	True	108	False
googlechrome	35.0	9924	1409429540	False	18	0	Mac 10.9	1409429540	2585.0	True	109	False
firefox	30.0	9924	1409429540	False	19	0	Mac 10.9	1409429540	1840.0	True	110	False
firefox	31.0	9924	1409429540	False	18	0	Linux	1409429540	2178.0	True	111	False
iexplore	8.0	9924	1409429540	False	24	44	Windows 2008	1409429540	5542.0	False	112	False
iexplore	10.0	9924	1409429540	False	26	0	Windows 2012	1409429540	3013.0	True	113	False
iphone	7.1	9924	1409429540	False	40	0	Mac 10.9	1409429540	3522.0	True	114	False
googlechrome	35.0	9924	1409429541	False	16	0	Windows 2012 R2	1409429557	1841.0	True	115	False
googlechrome	35.0	9924	1409429541	False	16	0	Linux	1409429557	1703.0	True	116	False
googlechrome	35.0	9925	1409429643	False	15	0	Linux	1409429644	2068.0	True	117	False
googlechrome	35.0	9925	1409429643	False	15	0	Windows 2012 R2	1409429644	1949.0	True	118	False
firefox	31.0	9925	1409429643	False	15	0	Linux	1409429644	2366.0	True	119	False
iexplore	10.0	9925	1409429643	False	15	0	Windows 2012	1409429644	2415.0	True	120	False
firefox	31.0	9925	1409429643	False	17	0	Windows 2012 R2	1409429644	1906.0	True	121	False
googlechrome	35.0	9925	1409429643	False	17	0	Mac 10.9	1409429644	2084.0	True	122	False
iexplore	8.0	9925	1409429643	False	21	44	Windows 2008	1409429643	3720.0	False	123	False
iexplore	9.0	9925	1409429643	False	21	0	Windows 2008	1409429644	3318.0	True	124	False
safari	7.0	9925	1409429643	False	20	1	Mac 10.9	1409429644	2386.0	False	125	False
iexplore	11.0	9925	1409429643	False	21	0	Windows 2012 R2	1409429644	2510.0	True	126	False
firefox	30.0	9925	1409429643	False	16	0	Mac 10.9	1409429664	1827.0	True	127	False
iphone	7.1	9925	1409429643	False	40	1	Mac 10.9	1409429762	3694.0	False	128	False
firefox	31.0	10007	1410199819	False	14	0	Linux	1410199820	2094.0	True	129	False
firefox	31.0	10007	1410199819	False	19	0	Mac 10.9	1410199820	1785.0	True	130	True
iphone	7.1	10007	1410199819	False	43	0	Mac 10.9	1410199820	3628.0	True	131	False
firefox	31.0	10007	1410199819	False	19	0	Windows 2012 R2	1410199820	1886.0	True	132	False
iexplore	10.0	10007	1410199819	False	19	0	Windows 2012	1410199820	2244.0	True	133	False
iexplore	8.0	10007	1410199819	False	20	1	Windows 2008	1410199820	4394.0	False	134	False
iexplore	11.0	10007	1410199819	False	19	0	Windows 2012 R2	1410199820	2000.0	True	135	False
iexplore	9.0	10007	1410199819	False	26	0	Windows 2008	1410199820	5192.0	True	136	False
safari	7.0	10007	1410199820	False	18	0	Mac 10.9	1410199821	1864.0	True	137	False
googlechrome	35.0	10007	1410199820	False	25	0	Mac 10.9	1410199822	2654.0	True	138	False
googlechrome	35.0	10007	1410199821	False	18	0	Windows 2012 R2	1410199837	2552.0	True	139	False
googlechrome	35.0	10007	1410199821	False	14	0	Linux	1410199832	1931.0	True	140	False
firefox	31.0	10014	1410208877	False	28	0	Mac 10.9	1410208877	2233.0	True	141	False
iexplore	10.0	10014	1410208878	False	19	0	Windows 2012	1410208878	2218.0	True	142	False
googlechrome	35.0	10014	1410208878	False	18	0	Mac 10.9	1410208879	2201.0	True	143	False
safari	7.0	10014	1410208878	False	30	0	Mac 10.9	1410208879	2447.0	True	144	False
iexplore	11.0	10014	1410208879	False	18	0	Windows 2012 R2	1410208880	2189.0	True	145	False
iexplore	8.0	10014	1410208879	False	24	0	Windows 2008	1410208880	6657.0	True	146	False
iexplore	9.0	10014	1410208879	False	29	0	Windows 2008	1410208880	5204.0	True	147	False
firefox	31.0	10014	1410208880	False	17	0	Linux	1410208880	1927.0	True	148	False
iphone	7.1	10014	1410208880	False	42	0	Mac 10.9	1410208880	3744.0	True	149	False
firefox	31.0	10014	1410208881	False	27	0	Windows 2012 R2	1410208882	2511.0	True	150	False
googlechrome	35.0	10014	1410208882	False	17	1	Windows 2012 R2	1410208896	2773.0	False	151	False
googlechrome	35.0	10014	1410208883	False	12	0	Linux	1410208896	2229.0	True	152	False
iexplore	10.0	10056	1410385130	False	20	0	Windows 2012	1410385130	2379.0	True	153	False
googlechrome	35.0	10056	1410385130	False	22	0	Mac 10.9	1410385130	3393.0	True	154	False
firefox	31.0	10056	1410385130	False	15	0	Linux	1410385130	2178.0	True	155	False
safari	7.0	10056	1410385130	False	19	0	Mac 10.9	1410385133	1839.0	True	156	False
googlechrome	35.0	10056	1410385130	False	15	0	Windows 2012 R2	1410385130	2095.0	True	157	False
iexplore	8.0	10056	1410385130	False	21	1	Windows 2008	1410385130	4463.0	False	158	False
firefox	31.0	10056	1410385130	False	21	0	Windows 2012 R2	1410385130	2831.0	True	159	False
firefox	31.0	10056	1410385130	False	29	0	Mac 10.9	1410385140	2934.0	True	160	False
iexplore	9.0	10056	1410385130	False	30	0	Windows 2008	1410385130	5702.0	True	161	False
iexplore	11.0	10056	1410385131	False	16	0	Windows 2012 R2	1410385140	2182.0	True	162	False
googlechrome	35.0	10056	1410385131	False	12	0	Linux	1410385144	1955.0	True	163	False
iphone	7.1	10056	1410385131	False	54	0	Mac 10.9	1410385144	4337.0	True	164	False
safari	7.0	10069	1410569104	False	19	0	Mac 10.9	1410569105	1929.0	True	165	False
iexplore	11.0	10069	1410569104	False	19	0	Windows 2012 R2	1410569105	2596.0	True	166	False
googlechrome	35.0	10069	1410569104	False	20	0	Mac 10.9	1410569105	1993.0	True	167	False
firefox	31.0	10069	1410569104	False	31	0	Mac 10.9	1410569105	3143.0	True	168	False
googlechrome	35.0	10069	1410569106	False	12	0	Linux	1410569106	2021.0	True	169	False
iexplore	10.0	10069	1410569106	False	18	0	Windows 2012	1410569106	2830.0	True	170	False
googlechrome	35.0	10069	1410569106	False	21	0	Windows 2012 R2	1410569107	1998.0	True	171	False
iexplore	9.0	10069	1410569106	False	24	0	Windows 2008	1410569106	5164.0	True	172	False
iexplore	8.0	10069	1410569106	False	24	1	Windows 2008	1410569106	6333.0	False	173	False
firefox	31.0	10069	1410569106	False	13	0	Windows 2012 R2	1410569120	1969.0	True	174	False
iphone	7.1	10069	1410569106	False	68	0	Mac 10.9	1410569106	6147.0	True	175	False
firefox	31.0	10069	1410569107	False	19	0	Linux	1410569131	2194.0	True	176	False
iexplore	11.0	10114	1410988800	False	16	0	Windows 2012 R2	1410988801	2234.0	True	177	False
iexplore	8.0	10114	1410988800	False	24	1	Windows 2008	1410988800	6056.0	False	178	False
iexplore	9.0	10114	1410988800	False	24	0	Windows 2008	1410988800	4740.0	True	179	False
iexplore	10.0	10114	1410988800	False	23	0	Windows 2012	1410988800	3338.0	True	180	False
firefox	31.0	10114	1410988800	False	24	0	Mac 10.9	1410988801	1972.0	True	181	False
googlechrome	35.0	10114	1410988800	False	30	0	Mac 10.9	1410988801	3438.0	True	182	False
googlechrome	35.0	10114	1410988801	False	15	0	Linux	1410988802	2293.0	True	183	False
googlechrome	35.0	10114	1410988801	False	27	0	Windows 2012 R2	1410988802	2220.0	True	184	False
firefox	31.0	10114	1410988802	False	23	0	Linux	1410988802	2647.0	True	185	False
safari	7.0	10114	1410988802	False	27	0	Mac 10.9	1410988802	2265.0	True	186	False
iphone	7.1	10114	1410988802	False	61	0	Mac 10.9	1410988818	5014.0	True	187	False
firefox	31.0	10114	1410988804	False	22	0	Windows 2012 R2	1410988818	3202.0	True	188	False
iexplore	10.0	10117	1411001419	False	18	0	Windows 2012	1411001420	3038.0	True	189	False
iexplore	9.0	10117	1411001419	False	18	0	Windows 2008	1411001420	3860.0	True	190	False
googlechrome	35.0	10117	1411001419	False	18	0	Mac 10.9	1411001420	2075.0	True	191	False
firefox	31.0	10117	1411001419	False	19	0	Mac 10.9	1411001420	2827.0	True	192	False
safari	7.0	10117	1411001419	False	18	0	Mac 10.9	1411001420	2154.0	True	193	False
googlechrome	35.0	10117	1411001420	False	11	0	Linux	1411001421	2015.0	True	194	False
firefox	31.0	10117	1411001420	False	16	0	Windows 2012 R2	1411001421	1958.0	True	195	False
iphone	7.1	10117	1411001420	False	56	0	Mac 10.9	1411001421	6561.0	True	196	False
googlechrome	35.0	10117	1411001421	False	16	0	Windows 2012 R2	1411001422	1908.0	True	197	False
firefox	31.0	10117	1411001426	False	22	0	Linux	1411001427	2950.0	True	198	False
iexplore	11.0	10117	1411001426	False	22	0	Windows 2012 R2	1411001436	2256.0	True	199	False
iexplore	8.0	10117	1411001426	False	29	1	Windows 2008	1411001436	6891.0	False	200	False
googlechrome	35.0	10141	1411420855	False	15	0	Windows 2012 R2	1411420856	1685.0	True	201	False
googlechrome	35.0	10141	1411420855	False	15	0	Mac 10.9	1411420856	1973.0	True	202	False
firefox	32.0	10141	1411420855	False	16	1	Linux	1411420856	2207.0	False	203	True
firefox	32.0	10141	1411420855	False	21	0	Windows 2012 R2	1411420856	2087.0	True	204	True
iexplore	11.0	10141	1411420855	False	21	0	Windows 2012 R2	1411420856	2266.0	True	205	False
iexplore	8.0	10141	1411420855	False	21	0	Windows 2008	1411420856	2951.0	True	206	False
iexplore	9.0	10141	1411420855	False	21	0	Windows 2008	1411420856	2477.0	True	207	False
safari	7.0	10141	1411420855	False	21	0	Mac 10.9	1411420856	1744.0	True	208	False
iexplore	10.0	10141	1411420855	False	12	0	Windows 2012	1411420869	1837.0	True	209	False
googlechrome	35.0	10141	1411420855	False	12	0	Linux	1411420869	1660.0	True	210	False
firefox	32.0	10141	1411420855	False	19	0	Mac 10.9	1411420869	1749.0	True	211	True
iphone	7.1	10141	1411420855	False	68	0	Mac 10.9	1411420856	4190.0	True	212	False
googlechrome	35.0	10144	1411442956	False	14	0	Windows 2012 R2	1411442957	1728.0	True	213	False
iexplore	10.0	10144	1411442956	False	14	0	Windows 2012	1411442957	1980.0	True	214	False
safari	7.0	10144	1411442956	False	20	0	Mac 10.9	1411442957	1758.0	True	215	False
iexplore	11.0	10144	1411442956	False	20	0	Windows 2012 R2	1411442957	2283.0	True	216	False
iexplore	8.0	10144	1411442956	False	20	0	Windows 2008	1411442957	3572.0	True	217	False
googlechrome	35.0	10144	1411442956	False	22	0	Mac 10.9	1411442957	2194.0	True	218	False
iexplore	9.0	10144	1411442956	False	20	0	Windows 2008	1411442957	2198.0	True	219	False
googlechrome	35.0	10144	1411442957	False	14	0	Linux	1411442957	1830.0	True	220	False
firefox	32.0	10144	1411442957	False	20	0	Mac 10.9	1411442957	1720.0	True	221	False
firefox	32.0	10144	1411442957	False	20	0	Linux	1411442957	2313.0	True	222	False
firefox	32.0	10144	1411442957	False	17	0	Windows 2012 R2	1411442974	1984.0	True	223	False
iphone	7.1	10144	1411442957	False	39	1	Mac 10.9	1411442975	2363.0	False	224	False
iexplore	9.0	10217	1412305911	False	14	0	Windows 2008	1412305913	2341.0	True	225	False
iexplore	11.0	10217	1412305911	False	15	0	Windows 2012 R2	1412305912	2030.0	True	226	False
iexplore	10.0	10217	1412305911	False	19	0	Windows 2012	1412305913	1876.0	True	227	False
firefox	32.0	10217	1412305911	False	19	0	Windows 2012 R2	1412305913	2007.0	True	228	False
firefox	32.0	10217	1412305911	False	22	0	Mac 10.9	1412305912	1942.0	True	229	False
safari	7.0	10217	1412305911	False	20	0	Mac 10.9	1412305913	1729.0	True	230	False
googlechrome	35.0	10217	1412305912	False	12	0	Linux	1412305935	1722.0	True	231	False
firefox	32.0	10217	1412305912	False	18	0	Linux	1412305935	2366.0	True	232	False
iexplore	8.0	10217	1412305912	False	19	1	Windows 2008	1412305935	2999.0	False	233	False
googlechrome	35.0	10217	1412305912	False	18	0	Windows 2012 R2	1412305935	1703.0	True	234	False
iphone	7.1	10217	1412305912	False	43	0	Mac 10.9	1412305913	2105.0	True	235	False
googlechrome	35.0	10217	1412305912	False	24	0	Mac 10.9	1412305935	2716.0	True	236	False
iexplore	10.0	10224	1412310484	False	14	0	Windows 2012	1412310484	1900.0	True	237	False
firefox	32.0	10224	1412310484	False	14	0	Linux	1412310484	1837.0	True	238	False
iexplore	11.0	10224	1412310484	False	19	0	Windows 2012 R2	1412310484	2256.0	True	239	False
googlechrome	35.0	10224	1412310484	False	19	0	Linux	1412310484	1799.0	True	240	False
iexplore	8.0	10224	1412310484	False	20	1	Windows 2008	1412310484	3132.0	False	241	False
safari	7.0	10224	1412310484	False	19	0	Mac 10.9	1412310484	1765.0	True	242	False
firefox	32.0	10224	1412310484	False	19	0	Mac 10.9	1412310485	1806.0	True	243	False
googlechrome	35.0	10224	1412310484	False	19	0	Mac 10.9	1412310485	2099.0	True	244	False
iexplore	9.0	10224	1412310484	False	26	0	Windows 2008	1412310484	2698.0	True	245	False
firefox	32.0	10224	1412310484	False	18	0	Windows 2012 R2	1412310500	2034.0	True	246	False
googlechrome	35.0	10224	1412310487	False	18	0	Windows 2012 R2	1412310511	2125.0	True	247	False
iphone	7.1	10224	1412311026	False	60	0	Mac 10.9	1412311026	4219.0	True	248	False
iexplore	8.0	10259	1412701586	False	19	0	Windows 2008	1412701588	3903.0	True	249	False
iexplore	10.0	10259	1412701586	False	20	0	Windows 2012	1412701587	2305.0	True	250	False
firefox	32.0	10259	1412701586	False	20	0	Mac 10.9	1412701588	1858.0	True	251	False
iexplore	9.0	10259	1412701586	False	21	0	Windows 2008	1412701587	2364.0	True	252	False
iexplore	11.0	10259	1412701586	False	22	0	Windows 2012 R2	1412701588	2390.0	True	253	False
safari	7.0	10259	1412701586	False	21	0	Mac 10.9	1412701587	1717.0	True	254	False
firefox	32.0	10259	1412701586	False	26	0	Windows 2012 R2	1412701588	2605.0	True	255	False
googlechrome	35.0	10259	1412701586	False	28	0	Mac 10.9	1412701587	3006.0	True	256	False
iphone	7.1	10259	1412701586	False	78	1	Mac 10.9	1412701587	2348.0	False	257	False
firefox	32.0	10259	1412701587	False	15	0	Linux	1412701607	1926.0	True	258	False
googlechrome	35.0	10259	1412701587	False	15	0	Linux	1412701607	1664.0	True	259	False
googlechrome	35.0	10259	1412701587	False	21	0	Windows 2012 R2	1412701607	1902.0	True	260	False
iexplore	11.0	10263	1412832349	False	14	0	Windows 2012 R2	1412832351	2001.0	True	261	False
safari	7.0	10263	1412832349	False	15	0	Mac 10.9	1412832351	1780.0	True	262	False
googlechrome	35.0	10263	1412832349	False	14	0	Linux	1412832351	1943.0	True	263	False
googlechrome	35.0	10263	1412832349	False	14	0	Windows 2012 R2	1412832351	1701.0	True	264	False
googlechrome	35.0	10263	1412832349	False	21	0	Mac 10.9	1412832349	2395.0	True	265	False
firefox	32.0	10263	1412832349	False	20	0	Windows 2012 R2	1412832351	2052.0	True	266	False
iexplore	8.0	10263	1412832349	False	20	1	Windows 2008	1412832351	3710.0	False	267	False
iexplore	9.0	10263	1412832349	False	20	0	Windows 2008	1412832351	2705.0	True	268	False
iexplore	10.0	10263	1412832349	False	15	0	Windows 2012	1412832370	2045.0	True	269	False
firefox	32.0	10263	1412832349	False	33	0	Mac 10.9	1412832370	2268.0	True	270	False
firefox	32.0	10263	1412832350	False	15	0	Linux	1412832370	1829.0	True	271	False
iphone	7.1	10263	1412833186	False	72	0	Mac 10.9	1412833186	2391.0	True	272	False
googlechrome	35.0	10322	1413993536	False	11	0	Linux	1413993537	1938.0	True	273	False
googlechrome	35.0	10322	1413993536	False	18	0	Windows 2012 R2	1413993537	2053.0	True	274	False
iexplore	10.0	10322	1413993536	False	19	0	Windows 2012	1413993536	1957.0	True	275	False
iexplore	9.0	10322	1413993536	False	19	0	Windows 2008	1413993537	2253.0	True	276	False
firefox	33.0	10322	1413993536	False	19	0	Mac 10.9	1413993537	1814.0	True	277	True
iexplore	8.0	10322	1413993536	False	19	0	Windows 2008	1413993537	3115.0	True	278	False
iexplore	11.0	10322	1413993536	False	20	0	Windows 2012 R2	1413993536	2489.0	True	279	False
firefox	33.0	10322	1413993536	False	19	0	Linux	1413993537	2290.0	True	280	True
safari	7.0	10322	1413993536	False	26	0	Mac 10.9	1413993536	2572.0	True	281	False
firefox	33.0	10322	1413993536	False	19	0	Windows 2012 R2	1413993548	2504.0	True	282	True
iphone	7.1	10322	1413993536	False	69	1	Mac 10.9	1413993537	3171.0	False	283	False
googlechrome	35.0	10322	1413993540	False	16	0	Mac 10.9	1413993556	1901.0	True	284	False
iexplore	11.0	10330	1414005320	False	17	0	Windows 2012 R2	1414005321	2119.0	True	285	False
firefox	33.0	10330	1414005320	False	18	0	Mac 10.9	1414005321	1851.0	True	286	False
iexplore	10.0	10330	1414005320	False	22	0	Windows 2012	1414005321	2010.0	True	287	False
safari	7.0	10330	1414005320	False	23	0	Mac 10.9	1414005321	2050.0	True	288	False
googlechrome	35.0	10330	1414005320	False	29	0	Mac 10.9	1414005321	3415.0	True	289	False
iexplore	8.0	10330	1414005321	False	22	0	Windows 2008	1414005322	2992.0	True	290	False
googlechrome	35.0	10330	1414005321	False	22	0	Windows 2012 R2	1414005322	2168.0	True	291	False
iexplore	9.0	10330	1414005321	False	23	0	Windows 2008	1414005322	3115.0	True	292	False
firefox	33.0	10330	1414005321	False	22	0	Windows 2012 R2	1414005322	2204.0	True	293	False
googlechrome	35.0	10330	1414005322	False	16	1	Linux	1414005323	1864.0	False	294	False
firefox	33.0	10330	1414005322	False	17	0	Linux	1414005339	2163.0	True	295	False
iphone	7.1	10330	1414005322	False	55	0	Mac 10.9	1414005339	2288.0	True	296	False
safari	7.0	10333	1414006988	False	15	0	Mac 10.9	1414006989	1782.0	True	297	False
googlechrome	35.0	10333	1414006988	False	14	0	Windows 2012 R2	1414006989	1811.0	True	298	False
firefox	33.0	10333	1414006988	False	15	0	Linux	1414006989	2060.0	True	299	False
iexplore	8.0	10333	1414006988	False	20	2	Windows 2008	1414006989	3205.0	False	300	False
iexplore	10.0	10333	1414006988	False	20	0	Windows 2012	1414006989	2603.0	True	301	False
firefox	33.0	10333	1414006988	False	19	0	Windows 2012 R2	1414006989	2540.0	True	302	False
iexplore	11.0	10333	1414006988	False	20	0	Windows 2012 R2	1414006989	2708.0	True	303	False
googlechrome	35.0	10333	1414006988	False	20	0	Mac 10.9	1414006989	2474.0	True	304	False
firefox	33.0	10333	1414006988	False	26	0	Mac 10.9	1414006989	2809.0	True	305	False
googlechrome	35.0	10333	1414006988	False	12	0	Linux	1414007006	1905.0	True	306	False
iexplore	9.0	10333	1414006988	False	24	0	Windows 2008	1414007007	2951.0	True	307	False
iphone	7.1	10333	1414006988	False	66	0	Mac 10.9	1414007007	2411.0	True	308	False
iexplore	10.0	10334	1414006920	False	18	0	Windows 2012	1414006921	2373.0	True	309	False
safari	7.0	10334	1414006920	False	19	0	Mac 10.9	1414006921	1852.0	True	310	False
googlechrome	35.0	10334	1414006920	False	19	0	Mac 10.9	1414006920	2364.0	True	311	False
googlechrome	35.0	10334	1414006920	False	19	0	Windows 2012 R2	1414006921	1777.0	True	312	False
iexplore	9.0	10334	1414006920	False	20	0	Windows 2008	1414006921	2839.0	True	313	False
iexplore	11.0	10334	1414006920	False	18	0	Windows 2012 R2	1414006922	2175.0	True	314	False
firefox	33.0	10334	1414006920	False	20	0	Linux	1414006920	2429.0	True	315	False
googlechrome	35.0	10334	1414006920	False	26	0	Linux	1414006920	1795.0	True	316	False
firefox	33.0	10334	1414006920	False	25	0	Mac 10.9	1414006921	2294.0	True	317	False
firefox	33.0	10334	1414006920	False	29	0	Windows 2012 R2	1414006920	2132.0	True	318	False
iexplore	8.0	10334	1414006920	False	27	2	Windows 2008	1414006940	4728.0	False	319	False
iphone	7.1	10334	1414006920	False	71	0	Mac 10.9	1414006940	2370.0	True	320	False
iexplore	11.0	10335	1414007146	False	15	0	Windows 2012 R2	1414007146	2503.0	True	321	False
firefox	33.0	10335	1414007146	False	14	0	Linux	1414007147	2168.0	True	322	False
googlechrome	35.0	10335	1414007146	False	14	0	Linux	1414007147	1835.0	True	323	False
safari	7.0	10335	1414007146	False	14	0	Mac 10.9	1414007147	2032.0	True	324	False
googlechrome	35.0	10335	1414007146	False	21	0	Windows 2012 R2	1414007146	2175.0	True	325	False
googlechrome	35.0	10335	1414007146	False	20	0	Mac 10.9	1414007147	2354.0	True	326	False
iexplore	10.0	10335	1414007146	False	20	0	Windows 2012	1414007147	1976.0	True	327	False
firefox	33.0	10335	1414007146	False	19	0	Windows 2012 R2	1414007147	2213.0	True	328	False
iexplore	9.0	10335	1414007146	False	26	0	Windows 2008	1414007147	3120.0	True	329	False
iexplore	8.0	10335	1414007146	False	26	2	Windows 2008	1414007147	4075.0	False	330	False
firefox	33.0	10335	1414007146	False	25	0	Mac 10.9	1414007164	2551.0	True	331	False
iphone	7.1	10335	1414007447	False	60	0	Mac 10.9	1414007448	2257.0	True	332	False
googlechrome	35.0	10351	1414037032	False	13	0	Linux	1414037033	1771.0	True	333	False
firefox	33.0	10351	1414037032	False	18	0	Linux	1414037033	2083.0	True	334	False
googlechrome	35.0	10351	1414037032	False	17	0	Windows 2012 R2	1414037033	1791.0	True	335	False
iexplore	9.0	10351	1414037032	False	17	0	Windows 2008	1414037033	2358.0	True	336	False
iexplore	8.0	10351	1414037032	False	18	0	Windows 2008	1414037033	3222.0	True	337	False
firefox	33.0	10351	1414037032	False	19	0	Mac 10.9	1414037033	1983.0	True	338	False
googlechrome	35.0	10351	1414037032	False	24	0	Mac 10.9	1414037033	3086.0	True	339	False
safari	7.0	10351	1414037032	False	26	0	Mac 10.9	1414037032	2281.0	True	340	False
firefox	33.0	10351	1414037032	False	24	1	Windows 2012 R2	1414037033	3042.0	False	341	False
iexplore	10.0	10351	1414037032	False	17	0	Windows 2012	1414037054	2155.0	True	342	False
iexplore	11.0	10351	1414037032	False	18	0	Windows 2012 R2	1414037054	3538.0	True	343	False
iphone	7.1	10351	1414037579	False	70	0	Mac 10.9	1414037579	2409.0	True	344	False
firefox	33.0	10357	1414039288	False	16	0	Mac 10.9	1414039289	2059.0	True	345	False
googlechrome	35.0	10357	1414039288	False	15	0	Windows 2012 R2	1414039289	1804.0	True	346	False
iexplore	8.0	10357	1414039288	False	16	0	Windows 2008	1414039289	3256.0	True	347	False
googlechrome	35.0	10357	1414039288	False	15	0	Mac 10.9	1414039289	2311.0	True	348	False
iexplore	10.0	10357	1414039288	False	15	0	Windows 2012	1414039289	2084.0	True	349	False
iexplore	11.0	10357	1414039288	False	16	0	Windows 2012 R2	1414039289	2130.0	True	350	False
firefox	33.0	10357	1414039288	False	21	0	Windows 2012 R2	1414039289	2692.0	True	351	False
safari	7.0	10357	1414039288	False	22	0	Mac 10.9	1414039289	2330.0	True	352	False
iphone	7.1	10357	1414039288	False	61	0	Mac 10.9	1414039289	2394.0	True	353	False
googlechrome	35.0	10357	1414039289	False	15	0	Linux	1414039290	2056.0	True	354	False
firefox	33.0	10357	1414039289	False	16	1	Linux	1414039309	2206.0	False	355	False
iexplore	9.0	10357	1414039289	False	16	0	Windows 2008	1414039309	2390.0	True	356	False
iexplore	10.0	10359	1414045253	False	12	0	Windows 2012	1414045254	1913.0	True	357	False
googlechrome	35.0	10359	1414045253	False	19	0	Windows 2012 R2	1414045253	1849.0	True	358	False
firefox	33.0	10359	1414045253	False	18	0	Linux	1414045254	2112.0	True	359	False
iexplore	8.0	10359	1414045253	False	19	0	Windows 2008	1414045253	3209.0	True	360	False
googlechrome	35.0	10359	1414045253	False	19	1	Mac 10.9	1414045254	2133.0	False	361	False
safari	7.0	10359	1414045253	False	18	0	Mac 10.9	1414045254	2085.0	True	362	False
firefox	33.0	10359	1414045253	False	19	0	Mac 10.9	1414045254	1859.0	True	363	False
iexplore	9.0	10359	1414045253	False	19	0	Windows 2008	1414045253	2331.0	True	364	False
iexplore	11.0	10359	1414045253	False	18	0	Windows 2012 R2	1414045254	2309.0	True	365	False
googlechrome	35.0	10359	1414045253	False	17	0	Linux	1414045271	1983.0	True	366	False
firefox	33.0	10359	1414045253	False	22	0	Windows 2012 R2	1414045271	2256.0	True	367	False
iphone	7.1	10359	1414045564	False	58	0	Mac 10.9	1414045564	2271.0	True	368	False
iexplore	11.0	10389	1414286274	False	16	0	Windows 2012 R2	1414286275	2165.0	True	369	False
firefox	33.0	10389	1414286274	False	16	0	Windows 2012 R2	1414286275	2250.0	True	370	False
googlechrome	35.0	10389	1414286274	False	16	0	Linux	1414286275	2060.0	True	371	False
googlechrome	35.0	10389	1414286274	False	16	0	Windows 2012 R2	1414286275	1846.0	True	372	False
iexplore	8.0	10389	1414286274	False	16	0	Windows 2008	1414286275	3209.0	True	373	False
firefox	33.0	10389	1414286274	False	16	0	Linux	1414286275	2513.0	True	374	False
firefox	33.0	10389	1414286274	False	17	0	Mac 10.9	1414286275	1950.0	True	375	False
iexplore	9.0	10389	1414286274	False	23	0	Windows 2008	1414286275	3019.0	True	376	False
googlechrome	35.0	10389	1414286274	False	29	0	Mac 10.9	1414286275	3556.0	True	377	False
safari	7.0	10389	1414286275	False	19	0	Mac 10.9	1414286293	1944.0	True	378	False
iexplore	10.0	10389	1414286275	False	19	0	Windows 2012	1414286293	2431.0	True	379	False
iphone	7.1	10389	1414286827	False	79	1	Mac 10.9	1414286828	3740.0	False	380	False
googlechrome	35.0	10393	1414288493	False	16	1	Linux	1414288494	2004.0	False	381	False
firefox	33.0	10393	1414288493	False	16	0	Linux	1414288494	2194.0	True	382	False
firefox	33.0	10393	1414288493	False	17	0	Mac 10.9	1414288493	1879.0	True	383	False
googlechrome	35.0	10393	1414288493	False	16	0	Mac 10.9	1414288494	2245.0	True	384	False
googlechrome	35.0	10393	1414288493	False	17	0	Windows 2012 R2	1414288493	2274.0	True	385	False
safari	7.0	10393	1414288493	False	16	0	Mac 10.9	1414288494	1873.0	True	386	False
iexplore	8.0	10393	1414288493	False	23	0	Windows 2008	1414288493	3881.0	True	387	False
firefox	33.0	10393	1414288493	False	22	0	Windows 2012 R2	1414288494	2689.0	True	388	False
iexplore	9.0	10393	1414288493	False	23	0	Windows 2008	1414288493	3014.0	True	389	False
iexplore	10.0	10393	1414288493	False	19	0	Windows 2012	1414288502	2329.0	True	390	False
iexplore	11.0	10393	1414288493	False	16	0	Windows 2012 R2	1414288509	2368.0	True	391	False
iphone	7.1	10393	1414288779	False	62	0	Mac 10.9	1414288779	2367.0	True	392	False
iexplore	11.0	10404	1414294869	False	14	0	Windows 2012 R2	1414294869	2376.0	True	393	False
googlechrome	35.0	10404	1414294869	False	18	1	Mac 10.9	1414294870	2268.0	False	394	False
safari	7.0	10404	1414294869	False	19	0	Mac 10.9	1414294870	2428.0	True	395	False
iexplore	9.0	10404	1414294869	False	19	1	Windows 2008	1414294870	2831.0	False	396	False
firefox	33.0	10404	1414294869	False	18	0	Windows 2012 R2	1414294870	2710.0	True	397	False
iexplore	10.0	10404	1414294869	False	19	1	Windows 2012	1414294870	2180.0	False	398	False
firefox	33.0	10404	1414294869	False	25	0	Mac 10.9	1414294870	2646.0	True	399	False
googlechrome	35.0	10404	1414294870	False	18	0	Windows 2012 R2	1414294870	2332.0	True	400	False
iexplore	8.0	10404	1414294870	False	19	0	Windows 2008	1414294870	3562.0	True	401	False
googlechrome	35.0	10404	1414294870	False	16	0	Linux	1414294887	2291.0	True	402	False
firefox	33.0	10404	1414294870	False	18	0	Linux	1414294886	2691.0	True	403	False
iphone	7.1	10404	1414295128	False	78	0	Mac 10.9	1414295128	3104.0	True	404	False
iexplore	11.0	10405	1414294982	False	16	0	Windows 2012 R2	1414294983	2425.0	True	405	False
iexplore	10.0	10405	1414294982	False	16	1	Windows 2012	1414294983	2203.0	False	406	False
googlechrome	35.0	10405	1414294982	False	16	0	Mac 10.9	1414294983	2459.0	True	407	False
safari	7.0	10405	1414294982	False	18	0	Mac 10.9	1414294983	1858.0	True	408	False
iexplore	8.0	10405	1414294982	False	23	0	Windows 2008	1414294983	4453.0	True	409	False
firefox	33.0	10405	1414294982	False	22	0	Mac 10.9	1414294983	2593.0	True	410	False
firefox	33.0	10405	1414294983	False	16	1	Linux	1414294984	3017.0	False	411	False
iexplore	9.0	10405	1414294983	False	22	1	Windows 2008	1414294984	2898.0	False	412	False
googlechrome	35.0	10405	1414294983	False	11	0	Linux	1414295008	2023.0	True	413	False
googlechrome	35.0	10405	1414294983	False	17	1	Windows 2012 R2	1414295008	2491.0	False	414	False
firefox	33.0	10405	1414294983	False	23	0	Windows 2012 R2	1414295008	3026.0	True	415	False
iphone	7.1	10405	1414294983	False	60	0	Mac 10.9	1414294984	2646.0	True	416	False
safari	7.0	10418	1414326636	False	19	0	Mac 10.9	1414326636	1930.0	True	417	False
iexplore	10.0	10418	1414326636	False	19	0	Windows 2012	1414326636	2397.0	True	418	False
iexplore	11.0	10418	1414326636	False	19	0	Windows 2012 R2	1414326636	2471.0	True	419	False
googlechrome	35.0	10418	1414326636	False	19	0	Mac 10.9	1414326636	2301.0	True	420	False
firefox	33.0	10418	1414326636	False	25	0	Mac 10.9	1414326636	2438.0	True	421	False
firefox	33.0	10418	1414326637	False	17	0	Windows 2012 R2	1414326638	2406.0	True	422	False
googlechrome	35.0	10418	1414326637	False	17	0	Windows 2012 R2	1414326638	1993.0	True	423	False
iexplore	9.0	10418	1414326637	False	18	0	Windows 2008	1414326638	2521.0	True	424	False
googlechrome	35.0	10418	1414326637	False	16	0	Linux	1414326655	2027.0	True	425	False
firefox	33.0	10418	1414326637	False	16	1	Linux	1414326655	2415.0	False	426	False
iexplore	8.0	10418	1414326637	False	22	0	Windows 2008	1414326655	3517.0	True	427	False
iphone	7.1	10418	1414326900	False	68	0	Mac 10.9	1414326900	2467.0	True	428	False
safari	7.0	10425	1414334806	False	14	0	Mac 10.9	1414334807	1897.0	True	429	False
iexplore	10.0	10425	1414334806	False	14	0	Windows 2012	1414334806	2060.0	True	430	False
firefox	33.0	10425	1414334806	False	13	0	Linux	1414334807	2337.0	True	431	False
googlechrome	35.0	10425	1414334806	False	13	0	Linux	1414334807	1941.0	True	432	False
iexplore	11.0	10425	1414334806	False	19	0	Windows 2012 R2	1414334807	2305.0	True	433	False
iexplore	8.0	10425	1414334806	False	19	0	Windows 2008	1414334807	3410.0	True	434	False
firefox	33.0	10425	1414334806	False	19	0	Windows 2012 R2	1414334807	2900.0	True	435	False
iexplore	9.0	10425	1414334806	False	19	0	Windows 2008	1414334807	2712.0	True	436	False
firefox	33.0	10425	1414334806	False	19	0	Mac 10.9	1414334807	2255.0	True	437	False
googlechrome	35.0	10425	1414334806	False	17	0	Mac 10.9	1414334829	3093.0	True	438	False
googlechrome	35.0	10425	1414334806	False	17	0	Windows 2012 R2	1414334829	1928.0	True	439	False
iphone	7.1	10425	1414334806	False	64	1	Mac 10.9	1414334807	2515.0	False	440	False
iexplore	9.0	10426	1414352712	False	17	0	Windows 2008	1414352712	2525.0	True	441	False
iexplore	10.0	10426	1414352712	False	17	0	Windows 2012	1414352712	2167.0	True	442	False
safari	7.0	10426	1414352712	False	17	0	Mac 10.9	1414352712	1956.0	True	443	False
googlechrome	35.0	10426	1414352712	False	17	0	Windows 2012 R2	1414352712	2009.0	True	444	False
iexplore	11.0	10426	1414352712	False	17	0	Windows 2012 R2	1414352712	2448.0	True	445	False
firefox	33.0	10426	1414352713	False	16	0	Linux	1414352713	2441.0	True	446	False
googlechrome	35.0	10426	1414352713	False	16	0	Mac 10.9	1414352713	2276.0	True	447	False
googlechrome	35.0	10426	1414352713	False	16	1	Linux	1414352713	2138.0	False	448	False
iexplore	8.0	10426	1414352713	False	22	0	Windows 2008	1414352713	3624.0	True	449	False
firefox	33.0	10426	1414352713	False	18	0	Mac 10.9	1414352737	2102.0	True	450	False
firefox	33.0	10426	1414352713	False	24	0	Windows 2012 R2	1414352737	2826.0	True	451	False
iphone	7.1	10426	1414352713	False	61	0	Mac 10.9	1414352713	2424.0	True	452	False
iexplore	11.0	10441	1414449670	False	15	0	Windows 2012 R2	1414449670	2355.0	True	453	False
safari	7.0	10441	1414449670	False	16	0	Mac 10.9	1414449670	1959.0	True	454	False
iexplore	9.0	10441	1414449670	False	16	0	Windows 2008	1414449670	2492.0	True	455	False
googlechrome	35.0	10441	1414449670	False	21	0	Mac 10.9	1414449670	3615.0	True	456	False
iexplore	10.0	10441	1414449671	False	13	0	Windows 2012	1414449672	2148.0	True	457	False
firefox	33.0	10441	1414449671	False	14	0	Linux	1414449672	2567.0	True	458	False
googlechrome	35.0	10441	1414449671	False	14	0	Linux	1414449672	2189.0	True	459	False
firefox	33.0	10441	1414449671	False	19	0	Windows 2012 R2	1414449672	2399.0	True	460	False
iexplore	8.0	10441	1414449671	False	19	1	Windows 2008	1414449672	3273.0	False	461	False
googlechrome	35.0	10441	1414449671	False	19	0	Windows 2012 R2	1414449672	1979.0	True	462	False
firefox	33.0	10441	1414449671	False	17	0	Mac 10.9	1414449685	2071.0	True	463	False
iphone	8.0	10441	1414449671	False	64	0	Mac 10.9	1414449759	3607.0	True	464	True
googlechrome	35.0	10454	1414494809	False	16	0	Linux	1414494811	3205.0	True	465	False
googlechrome	35.0	10454	1414494809	False	21	0	Windows 2012 R2	1414494811	3148.0	True	466	False
iexplore	8.0	10454	1414494809	False	22	0	Windows 2008	1414494811	5033.0	True	467	False
firefox	33.0	10454	1414494809	False	21	0	Windows 2012 R2	1414494811	3633.0	True	468	False
firefox	33.0	10454	1414494809	False	23	0	Mac 10.9	1414494811	3144.0	True	469	False
safari	7.0	10454	1414494809	False	22	0	Mac 10.9	1414494811	3403.0	True	470	False
googlechrome	35.0	10454	1414494809	False	23	0	Mac 10.9	1414494811	3404.0	True	471	False
iexplore	10.0	10454	1414494809	False	22	0	Windows 2012	1414494811	3632.0	True	472	False
iexplore	9.0	10454	1414494809	False	22	0	Windows 2008	1414494811	3894.0	True	473	False
iexplore	11.0	10454	1414494809	False	18	0	Windows 2012 R2	1414494825	3498.0	True	474	False
iphone	8.0	10454	1414494809	False	96	6	Mac 10.9	1414494811	4639.0	False	475	False
firefox	33.0	10454	1414494810	False	18	0	Linux	1414494830	3179.0	True	476	False
iexplore	10.0	10459	1414537776	False	19	0	Windows 2012	1414537777	3260.0	True	477	False
firefox	33.0	10459	1414537776	False	20	0	Windows 2012 R2	1414537777	3770.0	True	478	False
firefox	33.0	10459	1414537776	False	20	0	Linux	1414537777	3842.0	True	479	False
googlechrome	35.0	10459	1414537776	False	19	0	Windows 2012 R2	1414537777	3132.0	True	480	False
iexplore	8.0	10459	1414537776	False	19	0	Windows 2008	1414537777	4468.0	True	481	False
iexplore	11.0	10459	1414537776	False	19	0	Windows 2012 R2	1414537777	3405.0	True	482	False
firefox	33.0	10459	1414537776	False	20	0	Mac 10.9	1414537777	3768.0	True	483	False
safari	7.0	10459	1414537776	False	19	0	Mac 10.9	1414537777	3114.0	True	484	False
googlechrome	35.0	10459	1414537776	False	20	0	Mac 10.9	1414537777	3428.0	True	485	False
iexplore	9.0	10459	1414537776	False	20	0	Windows 2008	1414537777	3744.0	True	486	False
googlechrome	35.0	10459	1414537776	False	16	0	Linux	1414537796	3093.0	True	487	False
iphone	8.0	10459	1414537776	False	66	6	Mac 10.9	1414537796	4730.0	False	488	False
googlechrome	35.0	10498	1414602187	False	21	0	Mac 10.9	1414602187	3700.0	True	489	False
iexplore	9.0	10498	1414602187	False	21	0	Windows 2008	1414602188	3942.0	True	490	False
firefox	33.0	10498	1414602187	False	34	0	Mac 10.9	1414602188	4055.0	True	491	False
googlechrome	35.0	10498	1414602188	False	13	0	Linux	1414602189	3088.0	True	492	False
iexplore	11.0	10498	1414602188	False	19	0	Windows 2012 R2	1414602189	4065.0	True	493	False
googlechrome	35.0	10498	1414602188	False	19	0	Windows 2012 R2	1414602189	3575.0	True	494	False
iexplore	10.0	10498	1414602188	False	19	0	Windows 2012	1414602189	3524.0	True	495	False
safari	7.0	10498	1414602188	False	19	0	Mac 10.9	1414602189	3115.0	True	496	False
firefox	33.0	10498	1414602188	False	19	0	Windows 2012 R2	1414602189	3623.0	True	497	False
firefox	33.0	10498	1414602188	False	20	0	Linux	1414602200	3818.0	True	498	False
iexplore	8.0	10498	1414602188	False	19	0	Windows 2008	1414602206	4599.0	True	499	False
iphone	8.0	10498	1414602188	False	58	6	Mac 10.9	1414602189	4471.0	False	500	False
googlechrome	35.0	10506	1414610697	False	19	0	Mac 10.9	1414610697	3408.0	True	501	False
safari	7.0	10506	1414610697	False	19	0	Mac 10.9	1414610697	3245.0	True	502	False
firefox	33.0	10506	1414610697	False	22	0	Mac 10.9	1414610697	3355.0	True	503	False
iexplore	10.0	10506	1414610698	False	16	0	Windows 2012	1414610699	3409.0	True	504	False
firefox	33.0	10506	1414610698	False	22	0	Windows 2012 R2	1414610699	3704.0	True	505	False
iexplore	9.0	10506	1414610698	False	22	0	Windows 2008	1414610699	3899.0	True	506	False
googlechrome	35.0	10506	1414610698	False	22	0	Linux	1414610699	3517.0	True	507	False
iexplore	8.0	10506	1414610698	False	23	0	Windows 2008	1414610699	4876.0	True	508	False
iphone	8.0	10506	1414610698	False	65	6	Mac 10.9	1414610699	4981.0	False	509	False
iexplore	11.0	10506	1414610699	False	16	0	Windows 2012 R2	1414610699	3503.0	True	510	False
googlechrome	35.0	10506	1414610699	False	18	0	Windows 2012 R2	1414610719	3186.0	True	511	False
firefox	33.0	10506	1414610699	False	19	0	Linux	1414610719	3986.0	True	512	False
firefox	33.0	10507	1414614175	False	18	0	Windows 2012 R2	1414614176	3479.0	True	513	False
googlechrome	35.0	10507	1414614175	False	18	0	Mac 10.9	1414614176	3447.0	True	514	False
firefox	33.0	10507	1414614175	False	19	0	Mac 10.9	1414614175	3280.0	True	515	False
googlechrome	35.0	10507	1414614175	False	17	0	Windows 2012 R2	1414614177	3175.0	True	516	False
iexplore	10.0	10507	1414614175	False	18	0	Windows 2012	1414614176	3689.0	True	517	False
iexplore	11.0	10507	1414614175	False	18	0	Windows 2012 R2	1414614176	3545.0	True	518	False
firefox	33.0	10507	1414614175	False	18	0	Linux	1414614176	3347.0	True	519	False
iexplore	8.0	10507	1414614175	False	19	0	Windows 2008	1414614176	4704.0	True	520	False
iexplore	9.0	10507	1414614175	False	24	0	Windows 2008	1414614176	4450.0	True	521	False
safari	7.0	10507	1414614175	False	16	0	Mac 10.9	1414614194	3120.0	True	522	False
googlechrome	35.0	10507	1414614175	False	17	0	Linux	1414614194	3109.0	True	523	False
iphone	8.0	10507	1414614175	False	74	6	Mac 10.9	1414614176	4843.0	False	524	False
iexplore	10.0	10511	1414624508	False	20	0	Windows 2012	1414624509	3470.0	True	525	False
googlechrome	35.0	10511	1414624508	False	21	0	Mac 10.9	1414624509	3790.0	True	526	False
firefox	33.0	10511	1414624508	False	21	0	Windows 2012 R2	1414624509	3616.0	True	527	False
googlechrome	35.0	10511	1414624508	False	20	0	Linux	1414624509	3670.0	True	528	False
iexplore	9.0	10511	1414624508	False	20	0	Windows 2008	1414624509	3895.0	True	529	False
safari	7.0	10511	1414624508	False	21	0	Mac 10.9	1414624509	3176.0	True	530	False
firefox	33.0	10511	1414624508	False	22	0	Mac 10.9	1414624509	3263.0	True	531	False
iexplore	11.0	10511	1414624508	False	20	0	Windows 2012 R2	1414624509	3586.0	True	532	False
firefox	33.0	10511	1414624508	False	20	0	Linux	1414624509	3770.0	True	533	False
googlechrome	35.0	10511	1414624508	False	18	0	Windows 2012 R2	1414624532	3243.0	True	534	False
iexplore	8.0	10511	1414624508	False	24	0	Windows 2008	1414624532	4865.0	True	535	False
iphone	8.0	10511	1414624508	False	69	6	Mac 10.9	1414624509	4783.0	False	536	False
firefox	33.0	10522	1414641086	False	20	0	Windows 2012 R2	1414641087	3703.0	True	537	False
iexplore	11.0	10522	1414641086	False	20	0	Windows 2012 R2	1414641087	4111.0	True	538	False
iexplore	8.0	10522	1414641086	False	26	0	Windows 2008	1414641087	5610.0	True	539	False
iexplore	10.0	10522	1414641087	False	20	0	Windows 2012	1414641087	3410.0	True	540	False
safari	7.0	10522	1414641087	False	20	0	Mac 10.9	1414641087	3145.0	True	541	False
googlechrome	35.0	10522	1414641087	False	20	0	Mac 10.9	1414641087	3606.0	True	542	False
googlechrome	35.0	10522	1414641087	False	20	0	Windows 2012 R2	1414641087	3652.0	True	543	False
firefox	33.0	10522	1414641087	False	20	0	Linux	1414641087	3419.0	True	544	False
firefox	33.0	10522	1414641087	False	22	0	Mac 10.9	1414641087	3120.0	True	545	False
iexplore	9.0	10522	1414641087	False	21	0	Windows 2008	1414641087	4428.0	True	546	False
googlechrome	35.0	10522	1414641087	False	19	0	Linux	1414641113	3421.0	True	547	False
iphone	8.0	10522	1414641087	False	64	6	Mac 10.9	1414641113	4789.0	False	548	False
iexplore	10.0	10523	1414642167	False	17	0	Windows 2012	1414642167	3794.0	True	549	False
iexplore	11.0	10523	1414642167	False	17	0	Windows 2012 R2	1414642168	3771.0	True	550	False
firefox	33.0	10523	1414642167	False	18	0	Mac 10.9	1414642168	3335.0	True	551	False
safari	7.0	10523	1414642167	False	23	0	Mac 10.9	1414642168	3635.0	True	552	False
googlechrome	35.0	10523	1414642168	False	16	0	Linux	1414642169	3604.0	True	553	False
iexplore	9.0	10523	1414642168	False	22	0	Windows 2008	1414642169	3920.0	True	554	False
googlechrome	35.0	10523	1414642168	False	21	0	Windows 2012 R2	1414642169	3322.0	True	555	False
iexplore	8.0	10523	1414642168	False	22	0	Windows 2008	1414642169	5651.0	True	556	False
firefox	33.0	10523	1414642168	False	26	0	Windows 2012 R2	1414642169	3617.0	True	557	False
firefox	33.0	10523	1414642168	False	17	0	Linux	1414642189	3780.0	True	558	False
googlechrome	35.0	10523	1414642168	False	27	0	Mac 10.9	1414642190	5015.0	True	559	False
iphone	8.0	10523	1414642168	False	63	6	Mac 10.9	1414642169	4607.0	False	560	False
iexplore	11.0	10660	1415127055	False	18	0	Windows 2012 R2	1415127055	3704.0	True	561	False
iexplore	10.0	10660	1415127055	False	23	0	Windows 2012	1415127056	3644.0	True	562	False
safari	7.0	10660	1415127055	False	25	0	Mac 10.9	1415127055	3412.0	True	563	False
iexplore	9.0	10660	1415127056	False	22	0	Windows 2008	1415127056	4005.0	True	564	False
googlechrome	35.0	10660	1415127056	False	23	0	Windows 2012 R2	1415127056	3279.0	True	565	False
iexplore	8.0	10660	1415127056	False	24	0	Windows 2008	1415127056	6580.0	True	566	False
firefox	33.0	10660	1415127057	False	22	0	Mac 10.9	1415127057	3377.0	True	567	False
googlechrome	35.0	10660	1415127057	False	34	1	Mac 10.9	1415127057	5125.0	False	568	False
firefox	33.0	10660	1415127058	False	25	0	Windows 2012 R2	1415127059	4762.0	True	569	False
googlechrome	35.0	10660	1415127058	False	28	0	Linux	1415127071	3378.0	True	570	False
iphone	8.0	10660	1415127058	False	61	0	Mac 10.9	1415127059	5382.0	True	571	False
firefox	33.0	10660	1415127059	False	22	0	Linux	1415127079	3977.0	True	572	False
safari	8.0	10910	1416465206	False	21	1	Mac 10.10	1416465207	4992.0	False	573	True
firefox	33.0	10910	1416465206	False	27	0	Mac 10.10	1416465207	10611.0	True	574	True
iexplore	9.0	10910	1416465206	False	26	0	Windows 2008	1416465207	5419.0	True	575	False
googlechrome	27.0	10910	1416465206	False	63	0	Mac 10.10	1416465207	3809.0	True	576	True
googlechrome	35.0	10910	1416465208	False	19	0	Windows 2012 R2	1416465208	4079.0	True	577	False
firefox	33.0	10910	1416465208	False	19	0	Windows 2012 R2	1416465208	4439.0	True	578	False
iexplore	11.0	10910	1416465208	False	24	0	Windows 2012 R2	1416465208	5223.0	True	579	False
iexplore	10.0	10910	1416465208	False	17	0	Windows 2012	1416465225	4330.0	True	580	False
iexplore	8.0	10910	1416465208	False	24	0	Windows 2008	1416465225	6898.0	True	581	False
firefox	33.0	10910	1416465208	False	45	0	Linux	1416465208	4702.0	True	582	False
googlechrome	35.0	10910	1416465208	False	45	0	Linux	1416465208	4387.0	True	583	False
iphone	8.1	10910	1416465208	False	86	0	Mac 10.9	1416465208	6214.0	True	584	True
googlechrome	35.0	10914	1416472290	False	21	0	Windows 2012 R2	1416472290	4495.0	True	585	False
iexplore	11.0	10914	1416472290	False	21	0	Windows 2012 R2	1416472291	5084.0	True	586	False
safari	8.0	10914	1416472290	False	21	0	Mac 10.10	1416472290	5117.0	True	587	False
firefox	33.0	10914	1416472290	False	22	0	Windows 2012 R2	1416472290	4198.0	True	588	False
firefox	33.0	10914	1416472290	False	36	0	Mac 10.10	1416472290	10754.0	True	589	False
googlechrome	27.0	10914	1416472290	False	68	0	Mac 10.10	1416472291	4065.0	True	590	False
iexplore	8.0	10914	1416472291	False	27	0	Windows 2008	1416472291	5697.0	True	591	False
googlechrome	35.0	10914	1416472291	False	40	0	Linux	1416472291	3893.0	True	592	False
iexplore	9.0	10914	1416472291	False	23	0	Windows 2008	1416472310	5950.0	True	593	False
iphone	8.1	10914	1416472291	False	82	1	Mac 10.9	1416472291	6238.0	False	594	False
iexplore	10.0	10914	1416472292	False	17	0	Windows 2012	1416472310	4203.0	True	595	False
firefox	33.0	10914	1416472292	False	44	0	Linux	1416472309	4292.0	True	596	False
firefox	33.0	10930	1416512188	False	21	0	Windows 2012 R2	1416512188	4385.0	True	597	False
iexplore	8.0	10930	1416512188	False	24	0	Windows 2008	1416512188	5653.0	True	598	False
iexplore	11.0	10930	1416512188	False	22	0	Windows 2012 R2	1416512188	5010.0	True	599	False
googlechrome	35.0	10930	1416512188	False	27	0	Windows 2012 R2	1416512188	4427.0	True	600	False
iexplore	10.0	10930	1416512188	False	28	0	Windows 2012	1416512188	4733.0	True	601	False
firefox	33.0	10930	1416512188	False	33	0	Mac 10.10	1416512188	11582.0	True	602	False
googlechrome	27.0	10930	1416512188	False	65	0	Mac 10.10	1416512188	3807.0	True	603	False
iexplore	9.0	10930	1416512189	False	28	0	Windows 2008	1416512189	5909.0	True	604	False
safari	8.0	10930	1416512189	False	40	1	Mac 10.10	1416512189	8065.0	False	605	False
googlechrome	35.0	10930	1416512189	False	47	0	Linux	1416512189	4264.0	True	606	False
firefox	33.0	10930	1416512189	False	45	0	Linux	1416512207	4175.0	True	607	False
iphone	8.1	10930	1416512189	False	93	0	Mac 10.9	1416512207	6185.0	True	608	False
iexplore	8.0	10935	1416553498	False	17	0	Windows 2008	1416553499	5542.0	True	609	False
iexplore	9.0	10935	1416553498	False	17	0	Windows 2008	1416553499	4741.0	True	610	False
iexplore	11.0	10935	1416553498	False	23	1	Windows 2012 R2	1416553499	5068.0	False	611	False
iexplore	10.0	10935	1416553498	False	23	1	Windows 2012	1416553499	5384.0	False	612	False
googlechrome	27.0	10935	1416553498	False	62	0	Mac 10.10	1416553499	4126.0	True	613	False
safari	8.0	10935	1416553498	False	28	0	Mac 10.10	1416553679	6356.0	True	614	False
firefox	33.0	10935	1416553499	False	23	1	Windows 2012 R2	1416553499	5305.0	False	615	False
googlechrome	35.0	10935	1416553499	False	21	0	Windows 2012 R2	1416553514	3917.0	True	616	False
googlechrome	35.0	10935	1416553499	False	44	0	Linux	1416553499	3999.0	True	617	False
firefox	33.0	10935	1416553499	False	44	1	Linux	1416553499	4238.0	False	618	False
firefox	33.0	10935	1416553499	False	38	1	Mac 10.10	1416553514	11590.0	False	619	False
iphone	8.1	10935	1416553499	False	101	0	Mac 10.9	1416553613	6511.0	True	620	False
iexplore	8.0	11337	1420496824	False	23	63	Windows 2008	1420496825	4164.0	False	621	False
iexplore	10.0	11337	1420496824	False	28	0	Windows 2012	1420496825	5241.0	True	622	False
iexplore	9.0	11337	1420496824	False	36	0	Windows 2008	1420496825	6564.0	True	623	False
firefox	34.0	11337	1420496824	False	41	0	Mac 10.10	1420496825	11857.0	True	624	True
iexplore	11.0	11337	1420496826	False	21	0	Windows 2012 R2	1420496827	5283.0	True	625	False
safari	8.0	11337	1420496826	False	28	0	Mac 10.10	1420496827	5687.0	True	626	False
googlechrome	27.0	11337	1420496826	False	64	0	Mac 10.10	1420496827	4273.0	True	627	False
googlechrome	35.0	11337	1420496827	False	25	0	Windows 2012 R2	1420496828	3990.0	True	628	False
iphone	8.1	11337	1420496827	False	76	0	Mac 10.9	1420496828	5931.0	True	629	False
firefox	34.0	11337	1420496831	False	21	0	Windows 2012 R2	1420496832	4492.0	True	630	True
googlechrome	35.0	11337	1420496853	False	14	0	Linux	1420496853	3979.0	True	631	False
firefox	34.0	11337	1420496854	False	13	0	Linux	1420496854	4334.0	True	632	True
firefox	34.0	11338	1420496961	False	44	0	Mac 10.10	1420496962	11574.0	True	633	False
safari	8.0	11338	1420496961	False	64	0	Mac 10.10	1420496962	8895.0	True	634	False
iphone	8.1	11338	1420496962	False	89	0	Mac 10.9	1420496963	5792.0	True	635	False
googlechrome	35.0	11338	1420496963	False	20	0	Windows 2012 R2	1420496963	4412.0	True	636	False
iexplore	8.0	11338	1420496963	False	21	63	Windows 2008	1420496963	5577.0	False	637	False
iexplore	10.0	11338	1420496963	False	20	0	Windows 2012	1420496963	4707.0	True	638	False
firefox	34.0	11338	1420496963	False	26	0	Windows 2012 R2	1420496963	5119.0	True	639	False
iexplore	9.0	11338	1420496963	False	27	0	Windows 2008	1420496963	5462.0	True	640	False
iexplore	11.0	11338	1420496963	False	26	0	Windows 2012 R2	1420496963	4435.0	True	641	False
googlechrome	27.0	11338	1420496963	False	68	0	Mac 10.10	1420496963	4828.0	True	642	False
firefox	34.0	11338	1420496986	False	17	0	Linux	1420496986	4128.0	True	643	False
googlechrome	35.0	11338	1420496986	False	17	0	Linux	1420496986	4245.0	True	644	False
googlechrome	35.0	11913	1424928533	False	21	0	Windows 2012 R2	1424928534	4134.0	True	645	False
iexplore	10.0	11913	1424928533	False	20	0	Windows 2012	1424928534	5009.0	True	646	False
iexplore	11.0	11913	1424928533	False	21	0	Windows 2012 R2	1424928534	4974.0	True	647	False
safari	8.0	11913	1424928533	False	28	1	Mac 10.10	1424928534	6357.0	False	648	False
firefox	35.0	11913	1424928533	False	28	1	Windows 2012 R2	1424928533	5526.0	False	649	True
firefox	35.0	11913	1424928533	False	33	1	Mac 10.10	1424928534	10975.0	False	650	True
googlechrome	27.0	11913	1424928533	False	70	1	Mac 10.10	1424928534	3923.0	False	651	False
iphone	8.1	11913	1424928533	False	108	1	Mac 10.10	1424928534	4520.0	False	652	True
googlechrome	35.0	11913	1424928556	False	19	0	Linux	1424928556	4143.0	True	653	False
firefox	35.0	11913	1424928557	False	18	1	Linux	1424928557	4317.0	False	654	True
iexplore	10.0	11914	1424928577	False	18	0	Windows 2012	1424928578	4458.0	True	655	False
safari	8.0	11914	1424928577	False	24	1	Mac 10.10	1424928578	6090.0	False	656	False
iexplore	11.0	11914	1424928577	False	24	0	Windows 2012 R2	1424928578	5089.0	True	657	False
firefox	35.0	11914	1424928577	False	30	1	Mac 10.10	1424928578	11687.0	False	658	False
googlechrome	35.0	11914	1424928577	False	16	0	Windows 2012 R2	1424928601	4068.0	True	659	False
firefox	35.0	11914	1424928577	False	22	1	Windows 2012 R2	1424928601	4607.0	False	660	False
googlechrome	27.0	11914	1424928577	False	63	1	Mac 10.10	1424928578	4001.0	False	661	False
googlechrome	35.0	11914	1424928603	False	17	0	Linux	1424928605	4064.0	True	662	False
firefox	35.0	11914	1424928603	False	23	1	Linux	1424928616	4811.0	False	663	False
iexplore	10.0	11915	1424928658	False	17	0	Windows 2012	1424928680	4568.0	True	664	False
iexplore	11.0	11915	1424928658	False	17	0	Windows 2012 R2	1424928685	4862.0	True	665	False
firefox	35.0	11915	1424928658	False	23	1	Windows 2012 R2	1424928680	4630.0	False	666	False
iphone	8.1	11915	1424928658	False	76	1	Mac 10.10	1424928660	5034.0	False	667	False
googlechrome	27.0	11915	1424928658	False	67	1	Mac 10.10	1424928675	5283.0	False	668	False
firefox	35.0	11915	1424928658	False	44	1	Mac 10.10	1424928698	12079.0	False	669	False
googlechrome	35.0	11915	1424928658	False	15	0	Windows 2012 R2	1424928660	4026.0	True	670	False
iexplore	9.0	11915	1424928658	False	21	0	Windows 2008	1424928660	5351.0	True	671	False
iexplore	8.0	11915	1424928658	False	22	0	Windows 2008	1424928660	6150.0	True	672	False
safari	8.0	11915	1424928658	False	27	1	Mac 10.10	1424928660	6035.0	False	673	False
googlechrome	35.0	11915	1424928680	False	17	0	Linux	1424928701	4531.0	True	674	False
firefox	35.0	11915	1424928684	False	16	1	Linux	1424928701	4305.0	False	675	False
iexplore	10.0	11916	1424928754	False	21	0	Windows 2012	1424928755	4706.0	True	676	False
safari	8.0	11916	1424928754	False	21	1	Mac 10.10	1424928755	5293.0	False	677	False
iexplore	9.0	11916	1424928754	False	22	0	Windows 2008	1424928754	5177.0	True	678	False
firefox	35.0	11916	1424928754	False	26	1	Mac 10.10	1424928755	11703.0	False	679	False
googlechrome	27.0	11916	1424928754	False	64	1	Mac 10.10	1424928755	4134.0	False	680	False
iexplore	8.0	11916	1424928755	False	21	0	Windows 2008	1424928771	6600.0	True	681	False
firefox	35.0	11916	1424928755	False	20	1	Windows 2012 R2	1424928788	4789.0	False	682	False
googlechrome	35.0	11916	1424928755	False	19	0	Windows 2012 R2	1424928788	4047.0	True	683	False
iexplore	11.0	11916	1424928755	False	19	0	Windows 2012 R2	1424928788	5068.0	True	684	False
iphone	8.1	11916	1424928755	False	83	1	Mac 10.10	1424928775	4576.0	False	685	False
googlechrome	35.0	11916	1424928777	False	20	0	Linux	1424928798	4616.0	True	686	False
firefox	35.0	11916	1424928778	False	19	1	Linux	1424928798	4859.0	False	687	False
