browser_name	browser_version	build_id	creation_time	error	job_time	num_failed	os_info	start_time	test_time	passed	id	new_combi
googlechrome	28	136	1396999012	False	321	0	Linux	1396999012	507	True	1	True
safari	7	136	1396999016	False	30	0	Mac 10.9	1396999016	405	True	2	True
opera	12	136	1396999076	False	25	0	Windows 2008	1396999077	483	True	3	True
safari	6	136	1396999141	True	35	0	Mac 10.8	1396999141	0	True	4	True
firefox	28	136	1396999142	False	23	0	Linux	1396999143	740	True	5	True
safari	5	136	1396999206	False	28	0	Mac 10.6	1396999206	465	True	6	True
safari	5	136	1396999269	False	25	0	Windows 2008	1396999269	726	True	7	True
iexplore	11	136	1396999301	False	27	1	Windows 2012 R2	1396999301	766	False	8	True
iexplore	10	136	1396999365	False	27	0	Windows 2012	1396999365	846	True	9	True
iexplore	7	136	1396999452	False	26	0	Windows 2003	1396999452	2906	True	10	True
iexplore	8	136	1396999456	False	26	0	Windows 2008	1396999456	1813	True	11	True
iexplore	9	136	1396999469	False	26	0	Windows 2008	1396999469	567	True	12	True
googlechrome	28	136	1396999486	False	21	0	Linux	1396999486	535	True	13	True
firefox	28	136	1396999547	False	23	0	Linux	1396999548	739	True	14	True
opera	12	136	1396999641	False	27	0	Windows 2008	1396999641	350	True	15	True
safari	6	136	1396999641	False	34	0	Mac 10.8	1396999641	934	True	16	True
safari	5	136	1396999674	False	24	0	Mac 10.6	1396999674	458	True	17	True
safari	7	136	1396999707	False	37	0	Mac 10.9	1396999707	532	True	18	True
iexplore	11	136	1396999799	False	26	0	Windows 2012 R2	1396999799	765	True	19	True
iexplore	10	136	1396999801	False	26	0	Windows 2012	1396999801	631	True	20	True
iexplore	8	136	1396999893	False	27	0	Windows 2008	1396999893	1579	True	21	True
iexplore	9	136	1396999942	False	25	0	Windows 2008	1396999942	498	True	22	True
iexplore	7	136	1396999991	False	26	0	Windows 2003	1396999991	2329	True	23	True
googlechrome	28	137	1396999991	False	25	0	Linux	1396999991	757	True	24	False
firefox	28	137	1397000117	False	25	0	Linux	1397000118	1011	True	25	False
opera	12	137	1397000150	False	27	0	Windows 2008	1397000151	431	True	26	False
safari	7	137	1397000216	False	27	0	Mac 10.9	1397000216	449	True	27	False
safari	5	137	1397000343	False	23	0	Mac 10.6	1397000343	462	True	28	False
iexplore	10	137	1397000377	False	27	0	Windows 2012	1397000377	750	True	29	False
iexplore	8	137	1397000466	False	25	0	Windows 2008	1397000466	1449	True	30	False
firefox	28	137	1397000530	False	22	0	Linux	1397000531	726	True	31	False
googlechrome	28	137	1397000563	False	21	0	Linux	1397000563	522	True	32	False
opera	12	137	1397000595	False	26	0	Windows 2008	1397000595	406	True	33	False
iexplore	7	137	1397000596	False	30	0	Windows 2003	1397000596	3454	True	34	False
safari	6	137	1397000691	False	35	0	Mac 10.8	1397000692	1095	True	35	False
safari	5	137	1397000761	False	22	0	Mac 10.6	1397000762	471	True	36	False
safari	5	137	1397000761	False	27	0	Windows 2008	1397000762	540	True	37	False
iexplore	11	137	1397000792	False	26	0	Windows 2012 R2	1397000792	754	True	38	False
iexplore	10	137	1397000886	False	27	0	Windows 2012	1397000886	735	True	39	False
iexplore	9	137	1397000918	False	27	0	Windows 2008	1397000918	585	True	40	False
iexplore	8	137	1397000951	False	26	0	Windows 2008	1397000952	1660	True	41	False
iexplore	7	137	1397001015	False	27	0	Windows 2003	1397001015	3171	True	42	False
safari	5	137	1397018863	False	24	0	Windows 2008	1397018863	671	True	43	False
iexplore	9	137	1397018895	False	24	0	Windows 2008	1397018896	590	True	44	False
iexplore	11	137	1397019307	False	26	1	Windows 2012 R2	1397019307	783	False	45	False
safari	7	137	1397019335	False	28	0	Mac 10.9	1397019335	467	True	46	False
googlechrome	28	143	1398195368	False	21	0	Linux	1398195369	768	True	47	False
opera	12	143	1398195403	False	25	0	Windows 2008	1398195403	476	True	48	False
safari	7	143	1398195463	False	25	0	Mac 10.9	1398195463	396	True	49	False
firefox	28	143	1398195500	False	22	0	Linux	1398195500	654	True	50	False
safari	5	143	1398195781	False	23	0	Mac 10.6	1398195781	413	True	51	False
iexplore	11	143	1398195844	False	26	1	Windows 2012 R2	1398195845	689	False	52	False
iexplore	10	143	1398195968	False	27	0	Windows 2012	1398195969	931	True	53	False
iexplore	8	143	1398196191	False	26	0	Windows 2008	1398196191	1659	True	54	False
iexplore	7	143	1398196222	False	28	0	Windows 2003	1398196222	3610	True	55	False
googlechrome	28	143	1398196346	False	19	0	Linux	1398196346	543	True	56	False
opera	12	143	1398196378	False	24	0	Windows 2008	1398196379	457	True	57	False
firefox	28	143	1398196379	False	631	0	Linux	1398196380	540	True	58	False
safari	7	143	1398196574	False	25	0	Mac 10.9	1398196574	349	True	59	False
safari	6	143	1398196601	False	29	0	Mac 10.8	1398196602	304	True	60	False
safari	5	143	1398196760	False	26	0	Mac 10.6	1398196761	459	True	61	False
safari	5	143	1398196789	False	22	0	Windows 2008	1398196789	414	True	62	False
iexplore	11	143	1398196980	False	24	0	Windows 2012 R2	1398196980	585	True	63	False
iexplore	10	143	1398197009	False	26	0	Windows 2012	1398197010	773	True	64	False
iexplore	8	143	1398197135	False	26	0	Windows 2008	1398197135	1707	True	65	False
iexplore	9	143	1398197139	False	25	0	Windows 2008	1398197141	581	True	66	False
iexplore	7	143	1398197298	False	31	0	Windows 2003	1398197298	3468	True	67	False
iexplore	9	143	1398244820	False	27	0	Windows 2008	1398244820	585	True	68	False
safari	5	143	1398244850	False	36	0	Windows 2008	1398244850	644	True	69	False
safari	6	143	1398249935	False	43	0	Mac 10.8	1398249935	0	True	70	False
safari	6	154	1400524438	False	44	0	Mac 10.8	1400524439	0	True	71	False
firefox	29	154	1400524440	False	24	0	Linux	1400524440	743	True	72	True
googlechrome	28	154	1400524595	False	20	0	Linux	1400524595	551	True	73	False
safari	5	154	1400524624	False	21	0	Mac 10.6	1400524625	402	True	74	False
iexplore	11	154	1400524752	False	25	0	Windows 2012 R2	1400524753	667	True	75	False
iexplore	10	154	1400524814	False	27	0	Windows 2012	1400524815	767	True	76	False
iexplore	8	154	1400524906	False	27	0	Windows 2008	1400524907	1770	True	77	False
iexplore	7	154	1400525004	False	24	0	Windows 2003	1400525005	2076	True	78	False
iexplore	9	154	1400525011	False	24	1	Windows 2008	1400525011	556	False	79	False
googlechrome	28	154	1400525099	False	21	0	Linux	1400525099	493	True	80	False
firefox	29	154	1400525162	False	31	0	Linux	1400525162	0	True	81	True
safari	7	154	1400525189	False	26	0	Mac 10.9	1400525190	332	True	82	False
opera	12	154	1400525193	False	25	0	Windows 2008	1400525193	381	True	83	False
safari	6	154	1400525251	False	33	0	Mac 10.8	1400525251	988	True	84	False
safari	5	154	1400525351	False	24	0	Mac 10.6	1400525352	462	True	85	False
safari	5	154	1400525352	False	22	0	Windows 2008	1400525352	465	True	86	False
iexplore	11	154	1400525379	False	25	0	Windows 2012 R2	1400525379	607	True	87	False
iexplore	10	154	1400525449	False	27	0	Windows 2012	1400525449	677	True	88	False
iexplore	8	154	1400525510	False	24	0	Windows 2008	1400525510	1267	True	89	False
iexplore	9	154	1400525537	False	24	0	Windows 2008	1400525537	383	True	90	False
iexplore	7	154	1400525572	False	25	0	Windows 2003	1400525572	2437	True	91	False
safari	5	154	1400525946	False	24	0	Windows 2008	1400525946	538	True	92	False
googlechrome	28	198	1404153528	False	21	0	Linux	1404153529	836	True	93	False
firefox	30	198	1404153529	False	23	0	Linux	1404153529	988	True	94	True
opera	12	198	1404153559	False	25	0	Windows 2008	1404153559	375	True	95	False
safari	6	198	1404153722	False	45	0	Mac 10.8	1404153722	0	True	96	False
safari	5	198	1404153748	False	22	0	Mac 10.6	1404153749	301	True	97	False
iexplore	9	198	1404153954	False	25	2	Windows 2008	1404153955	396	False	98	False
iexplore	10	198	1404153988	False	27	0	Windows 2012	1404153988	601	True	99	False
iexplore	11	198	1404154018	False	24	0	Windows 2012 R2	1404154018	593	True	100	False
iexplore	8	198	1404154049	False	25	2	Windows 2008	1404154049	1530	False	101	False
iexplore	7	198	1404154173	False	28	2	Windows 2003	1404154174	2157	False	102	False
firefox	30	198	1404154204	False	24	0	Linux	1404154204	762	True	103	True
googlechrome	28	198	1404154240	False	23	0	Linux	1404154241	549	True	104	False
opera	12	198	1404154304	False	31	0	Windows 2008	1404154304	399	True	105	False
safari	5	198	1404154490	False	28	0	Windows 2008	1404154490	438	True	106	False
safari	7	198	1404154525	False	28	0	Mac 10.9	1404154525	370	True	107	False
iexplore	11	198	1404154526	False	26	0	Windows 2012 R2	1404154526	770	True	108	False
safari	5	198	1404154528	False	36	0	Mac 10.6	1404154528	373	True	109	False
safari	6	198	1404154558	False	36	0	Mac 10.8	1404154558	1239	True	110	False
iexplore	10	198	1404154745	False	27	0	Windows 2012	1404154745	721	True	111	False
iexplore	7	198	1404154776	False	26	3	Windows 2003	1404154776	1938	False	112	False
iexplore	9	198	1404154779	False	28	3	Windows 2008	1404154779	485	False	113	False
iexplore	8	198	1404154783	False	25	3	Windows 2008	1404154783	1232	False	114	False
googlechrome	28	200	1404155069	False	20	0	Linux	1404155070	544	True	115	False
opera	12	200	1404155132	False	29	0	Windows 2008	1404155133	468	True	116	False
firefox	30	200	1404155169	False	22	0	Linux	1404155169	618	True	117	False
safari	5	200	1404155195	False	26	0	Mac 10.6	1404155195	448	True	118	False
safari	7	200	1404155294	False	29	0	Mac 10.9	1404155294	411	True	119	False
iexplore	11	200	1404155387	False	25	0	Windows 2012 R2	1404155388	574	True	120	False
iexplore	9	200	1404155426	False	27	1	Windows 2008	1404155426	661	False	121	False
iexplore	10	200	1404155427	False	27	0	Windows 2012	1404155427	580	True	122	False
iexplore	8	200	1404155585	False	26	1	Windows 2008	1404155585	1577	False	123	False
iexplore	7	200	1404155647	False	26	1	Windows 2003	1404155647	2015	False	124	False
googlechrome	28	200	1404155648	False	22	0	Linux	1404155648	515	True	125	False
safari	7	200	1404155790	False	28	0	Mac 10.9	1404155790	436	True	126	False
firefox	30	200	1404155792	False	23	0	Linux	1404155793	808	True	127	False
opera	12	200	1404155793	False	25	0	Windows 2008	1404155793	369	True	128	False
safari	5	200	1404155818	False	24	0	Mac 10.6	1404155818	402	True	129	False
safari	6	200	1404155821	False	35	0	Mac 10.8	1404155821	487	True	130	False
iexplore	11	200	1404155978	False	28	0	Windows 2012 R2	1404155978	638	True	131	False
safari	5	200	1404155979	False	26	0	Windows 2008	1404155979	643	True	132	False
iexplore	9	200	1404156017	False	27	1	Windows 2008	1404156017	622	False	133	False
iexplore	8	200	1404156047	False	30	1	Windows 2008	1404156047	1851	False	134	False
iexplore	10	200	1404156106	False	27	0	Windows 2012	1404156106	569	True	135	False
safari	5	200	1404156142	False	24	0	Windows 2008	1404156142	491	True	136	False
safari	6	200	1404156147	False	32	0	Mac 10.8	1404156147	453	True	137	False
iexplore	7	200	1404156177	False	25	1	Windows 2003	1404156177	1749	False	138	False
safari	7	231	1404481094	False	26	1	Mac 10.9	1404481094	409	False	139	False
opera	12	231	1404481098	False	27	1	Windows 2008	1404481098	496	False	140	False
firefox	30	231	1404481123	False	30	1	Linux	1404481123	905	False	141	False
safari	6	231	1404481160	False	44	0	Mac 10.8	1404481160	0	True	142	False
googlechrome	28	231	1404481187	False	20	1	Linux	1404481187	898	False	143	False
safari	5	231	1404481251	False	25	1	Mac 10.6	1404481251	461	False	144	False
safari	5	231	1404481286	True	25	0	Windows 2008	1404481286	0	True	145	False
iexplore	11	231	1404481286	False	26	1	Windows 2012 R2	1404481286	615	False	146	False
iexplore	9	231	1404481319	False	28	1	Windows 2008	1404481319	655	False	147	False
iexplore	10	231	1404481319	False	26	1	Windows 2012	1404481319	566	False	148	False
iexplore	8	231	1404481387	False	25	0	Windows 2008	1404481387	1450	True	149	False
googlechrome	28	231	1404481439	False	22	1	Linux	1404481440	770	False	150	False
iexplore	7	231	1404481444	False	28	0	Windows 2003	1404481444	2062	True	151	False
firefox	30	231	1404481472	False	20	1	Linux	1404481472	557	False	152	False
opera	12	231	1404481472	False	29	1	Windows 2008	1404481472	409	False	153	False
safari	7	231	1404481570	False	32	1	Mac 10.9	1404481572	348	False	154	False
safari	5	231	1404481633	False	23	1	Mac 10.6	1404481633	470	False	155	False
iexplore	11	231	1404481659	False	35	0	Windows 2012 R2	1404481659	0	True	156	False
safari	5	231	1404481662	False	35	1	Windows 2008	1404481662	375	False	157	False
iexplore	10	231	1404481755	False	34	0	Windows 2012	1404481755	0	True	158	False
iexplore	9	231	1404481786	False	33	1	Windows 2008	1404481786	826	False	159	False
iexplore	7	231	1404481827	False	27	0	Windows 2003	1404481827	2047	True	160	False
iexplore	8	231	1404481927	False	26	0	Windows 2008	1404481927	1513	True	161	False
opera	12	232	1404482540	False	28	1	Windows 2008	1404482540	406	False	162	False
safari	6	232	1404482568	False	45	0	Mac 10.8	1404482568	0	True	163	False
googlechrome	28	232	1404482598	False	19	1	Linux	1404482599	441	False	164	False
firefox	30	232	1404482602	False	33	1	Linux	1404482606	838	False	165	False
safari	7	232	1404482636	False	29	1	Mac 10.9	1404482638	379	False	166	False
iexplore	11	232	1404482735	False	24	1	Windows 2012 R2	1404482735	633	False	167	False
safari	5	232	1404482771	False	23	1	Mac 10.6	1404482771	371	False	168	False
iexplore	10	232	1404482773	False	29	1	Windows 2012	1404482776	804	False	169	False
safari	5	232	1404482803	False	26	1	Windows 2008	1404482806	612	False	170	False
iexplore	9	232	1404482804	False	29	1	Windows 2008	1404482804	628	False	171	False
iexplore	8	232	1404482899	False	25	0	Windows 2008	1404482900	1694	True	172	False
googlechrome	28	232	1404482966	False	472	1	Linux	1404482966	537	False	173	False
firefox	30	232	1404482991	False	29	1	Linux	1404482991	694	False	174	False
opera	12	232	1404482992	False	32	1	Windows 2008	1404482992	424	False	175	False
iexplore	7	232	1404483025	False	43	0	Windows 2003	1404483025	2172	True	176	False
safari	7	232	1404483088	True	37	0	Mac 10.9	1404483088	0	True	177	False
safari	6	232	1404483157	False	32	1	Mac 10.8	1404483157	252	False	178	False
safari	5	232	1404483158	False	25	1	Mac 10.6	1404483158	365	False	179	False
safari	5	232	1404483189	False	25	1	Windows 2008	1404483227	486	False	180	False
iexplore	9	232	1404483356	False	24	1	Windows 2008	1404483356	468	False	181	False
iexplore	11	232	1404483357	False	25	1	Windows 2012 R2	1404483357	496	False	182	False
iexplore	10	232	1404483357	False	28	2	Windows 2012	1404483357	1419	False	183	False
iexplore	8	232	1404483421	False	25	0	Windows 2008	1404483421	1333	True	184	False
iexplore	7	232	1404483544	False	24	0	Windows 2003	1404483545	1890	True	185	False
firefox	30	235	1404543437	False	24	1	Linux	1404543437	972	False	186	False
googlechrome	28	235	1404543441	False	22	1	Linux	1404543441	672	False	187	False
opera	12	235	1404543444	False	26	1	Windows 2008	1404543444	438	False	188	False
safari	7	235	1404543476	False	33	1	Mac 10.9	1404543476	394	False	189	False
safari	6	235	1404543503	False	47	0	Mac 10.8	1404543504	0	True	190	False
safari	5	235	1404543561	False	23	1	Mac 10.6	1404543561	446	False	191	False
iexplore	11	235	1404543564	False	25	1	Windows 2012 R2	1404543565	680	False	192	False
safari	5	235	1404543567	False	24	1	Windows 2008	1404543567	627	False	193	False
iexplore	10	235	1404543628	False	28	1	Windows 2012	1404543628	666	False	194	False
iexplore	9	235	1404543657	False	27	1	Windows 2008	1404543657	627	False	195	False
iexplore	8	235	1404543690	False	37	1	Windows 2008	1404543691	3035	False	196	False
googlechrome	28	235	1404543717	False	22	1	Linux	1404543720	476	False	197	False
iexplore	7	235	1404543748	False	28	0	Windows 2003	1404543748	2891	True	198	False
firefox	30	235	1404543781	False	24	1	Linux	1404543781	743	False	199	False
opera	12	235	1404543810	False	25	1	Windows 2008	1404543810	352	False	200	False
safari	7	235	1404543843	False	28	1	Mac 10.9	1404543843	422	False	201	False
safari	6	235	1404543843	False	41	1	Mac 10.8	1404543843	265	False	202	False
safari	5	235	1404543905	False	28	1	Mac 10.6	1404543905	538	False	203	False
iexplore	11	235	1404543937	False	26	1	Windows 2012 R2	1404543937	660	False	204	False
safari	5	235	1404543938	False	27	1	Windows 2008	1404543938	653	False	205	False
iexplore	10	235	1404543967	False	35	1	Windows 2012	1404543968	843	False	206	False
iexplore	9	235	1404543999	False	23	1	Windows 2008	1404544000	413	False	207	False
iexplore	7	235	1404544063	False	34	0	Windows 2003	1404544063	2796	True	208	False
iexplore	8	235	1404544126	False	27	0	Windows 2008	1404544126	1286	True	209	False
safari	6	248	1406151745	False	33	0	Mac 10.8	1406151746	443	True	210	False
googlechrome	28	248	1406151747	False	19	0	Linux	1406151747	659	True	211	False
firefox	30	248	1406151748	False	622	0	Linux	1406151748	701	True	212	False
opera	12	248	1406151750	False	25	0	Windows 2008	1406151750	499	True	213	False
safari	7	248	1406151775	False	26	0	Mac 10.9	1406151777	664	True	214	False
safari	5	248	1406152061	False	23	0	Mac 10.6	1406152062	528	True	215	False
iexplore	11	248	1406152122	False	25	0	Windows 2012 R2	1406152122	754	True	216	False
safari	5	248	1406152127	False	25	0	Windows 2008	1406152127	780	True	217	False
iexplore	10	248	1406152157	False	26	0	Windows 2012	1406152158	754	True	218	False
iexplore	8	248	1406152409	False	25	0	Windows 2008	1406152409	1552	True	219	False
iexplore	7	248	1406152411	False	26	0	Windows 2003	1406152411	2096	True	220	False
iexplore	9	248	1406152444	False	26	0	Windows 2008	1406152444	758	True	221	False
googlechrome	28	248	1406152503	False	22	0	Linux	1406152503	718	True	222	False
firefox	30	248	1406152664	False	23	0	Linux	1406152664	815	True	223	False
opera	12	248	1406152665	False	26	0	Windows 2008	1406152665	593	True	224	False
safari	7	248	1406152758	False	28	0	Mac 10.9	1406152758	574	True	225	False
safari	6	248	1406152784	False	32	1	Mac 10.8	1406152784	1363	False	226	False
safari	5	248	1406152851	False	22	0	Mac 10.6	1406152852	587	True	227	False
safari	5	248	1406152951	False	24	0	Windows 2008	1406152951	553	True	228	False
iexplore	11	248	1406152977	False	26	0	Windows 2012 R2	1406152978	763	True	229	False
iexplore	10	248	1406153012	False	29	0	Windows 2012	1406153012	717	True	230	False
iexplore	9	248	1406153071	False	29	0	Windows 2008	1406153071	711	True	231	False
iexplore	8	248	1406153071	False	29	0	Windows 2008	1406153071	1876	True	232	False
iexplore	7	248	1406153136	False	27	0	Windows 2003	1406153137	2687	True	233	False
